function ego:ice_race/term if @s[score_FLgam_min=803738518,score_FLgam=803738518]
function ego:slow_race/term if @s[score_FLgam_min=720573389,score_FLgam=720573389]
function ego:nether_race/term if @s[score_FLgam_min=1061722156,score_FLgam=1061722156]
function ego:evil_race/term if @s[score_FLgam_min=840715523,score_FLgam=840715523]
function ego:diamond_race/term if @s[score_FLgam_min=878514327,score_FLgam=878514327]
function ego:emerald_race/term if @s[score_FLgam_min=1844105133,score_FLgam=1844105133]
function ego:quartz_race/term if @s[score_FLgam_min=1964796834,score_FLgam=1964796834]
function ego:1_8_race/term if @s[score_FLgam_min=1372444959,score_FLgam=1372444959]
function ego:epic_race/term if @s[score_FLgam_min=165517204,score_FLgam=165517204]
function ego:salt_race/term if @s[score_FLgam_min=942958520,score_FLgam=942958520]
function ego:death_run/term if @s[score_FLgam_min=54328140,score_FLgam=54328140]
function ego:dirt_race/term if @s[score_FLgam_min=2140645621,score_FLgam=2140645621]
function ego:mycelium_race/term if @s[score_FLgam_min=767278703,score_FLgam=767278703]
function ego:frostburn_run/term if @s[score_FLgam_min=1848527163,score_FLgam=1848527163]
function ego:ever_changing_race/term if @s[score_FLgam_min=972907871,score_FLgam=972907871]
function ego:virus_1/term if @s[score_FLgam_min=1095056157,score_FLgam=1095056157]
function ego:virus_2/term if @s[score_FLgam_min=763826195,score_FLgam=763826195]
function ego:virus_mansion/term if @s[score_FLgam_min=1973922275,score_FLgam=1973922275]
function ego:pvp/term if @s[score_FLgam_min=1228762126,score_FLgam=1228762126]
function ego:capture_the_flag/term if @s[score_FLgam_min=539017757,score_FLgam=539017757]
function ego:the_pit_3/term if @s[score_FLgam_min=586508005,score_FLgam=586508005]
function ego:sand_tomb/term if @s[score_FLgam_min=1368311757,score_FLgam=1368311757]
function ego:anvil_drop/term if @s[score_FLgam_min=333805818,score_FLgam=333805818]
function ego:death_pit/term if @s[score_FLgam_min=1978548874,score_FLgam=1978548874]
function ego:rabbit_ball/term if @s[score_FLgam_min=726964523,score_FLgam=726964523]
function ego:mastermind/term if @s[score_FLgam_min=1217546713,score_FLgam=1217546713]
function ego:mastermind_hell/term if @s[score_FLgam_min=525124045,score_FLgam=525124045]
function ego:pictionary/term if @s[score_FLgam_min=1301307747,score_FLgam=1301307747]
function ego:royal_rumble/term if @s[score_FLgam_min=1336970968,score_FLgam=1336970968]
function ego:bh_a_small_village/term if @s[score_FLgam_min=244577678,score_FLgam=244577678]
function ego:bh_apocalypse/term if @s[score_FLgam_min=1203107457,score_FLgam=1203107457]
function ego:bh_castle_de_emmy/term if @s[score_FLgam_min=606156446,score_FLgam=606156446]
function ego:bh_four_corners/term if @s[score_FLgam_min=526354106,score_FLgam=526354106]
function ego:bh_hasdaa/term if @s[score_FLgam_min=478919104,score_FLgam=478919104]
function ego:bh_hospital/term if @s[score_FLgam_min=1159673785,score_FLgam=1159673785]
function ego:bh_jungle/term if @s[score_FLgam_min=184603297,score_FLgam=184603297]
function ego:bh_mastermind/term if @s[score_FLgam_min=408217586,score_FLgam=408217586]
function ego:bh_mushroom_village/term if @s[score_FLgam_min=607841732,score_FLgam=607841732]
function ego:bh_old/term if @s[score_FLgam_min=354536009,score_FLgam=354536009]
function ego:bh_park/term if @s[score_FLgam_min=818788035,score_FLgam=818788035]
function ego:bh_rainbow/term if @s[score_FLgam_min=658982564,score_FLgam=658982564]
function ego:bh_resort/term if @s[score_FLgam_min=1456309508,score_FLgam=1456309508]
function ego:bh_train_station/term if @s[score_FLgam_min=993875352,score_FLgam=993875352]
function ego:bh_virus_1/term if @s[score_FLgam_min=8130627,score_FLgam=8130627]
function ego:bh_virus_2/term if @s[score_FLgam_min=98805618,score_FLgam=98805618]
function ego:bh_zelda/term if @s[score_FLgam_min=558233482,score_FLgam=558233482]
function ego:ts_token/term if @s[score_FLgam_min=2052427056,score_FLgam=2052427056]
scoreboard players set @s[score_FLgam_min=1] FLgam 0
