function ego:ice_race/book if @s[score_FLbk_min=803738518,score_FLbk=803738518]
function ego:slow_race/book if @s[score_FLbk_min=720573389,score_FLbk=720573389]
function ego:nether_race/book if @s[score_FLbk_min=1061722156,score_FLbk=1061722156]
function ego:evil_race/book if @s[score_FLbk_min=840715523,score_FLbk=840715523]
function ego:diamond_race/book if @s[score_FLbk_min=878514327,score_FLbk=878514327]
function ego:emerald_race/book if @s[score_FLbk_min=1844105133,score_FLbk=1844105133]
function ego:quartz_race/book if @s[score_FLbk_min=1964796834,score_FLbk=1964796834]
function ego:1_8_race/book if @s[score_FLbk_min=1372444959,score_FLbk=1372444959]
function ego:epic_race/book if @s[score_FLbk_min=165517204,score_FLbk=165517204]
function ego:salt_race/book if @s[score_FLbk_min=942958520,score_FLbk=942958520]
function ego:death_run/book if @s[score_FLbk_min=54328140,score_FLbk=54328140]
function ego:dirt_race/book if @s[score_FLbk_min=2140645621,score_FLbk=2140645621]
function ego:mycelium_race/book if @s[score_FLbk_min=767278703,score_FLbk=767278703]
function ego:frostburn_run/book if @s[score_FLbk_min=1848527163,score_FLbk=1848527163]
function ego:ever_changing_race/book if @s[score_FLbk_min=972907871,score_FLbk=972907871]
function ego:virus_1/book if @s[score_FLbk_min=1095056157,score_FLbk=1095056157]
function ego:virus_2/book if @s[score_FLbk_min=763826195,score_FLbk=763826195]
function ego:virus_mansion/book if @s[score_FLbk_min=1973922275,score_FLbk=1973922275]
function ego:pvp/book if @s[score_FLbk_min=1228762126,score_FLbk=1228762126]
function ego:capture_the_flag/book if @s[score_FLbk_min=539017757,score_FLbk=539017757]
function ego:the_pit_3/book if @s[score_FLbk_min=586508005,score_FLbk=586508005]
function ego:sand_tomb/book if @s[score_FLbk_min=1368311757,score_FLbk=1368311757]
function ego:anvil_drop/book if @s[score_FLbk_min=333805818,score_FLbk=333805818]
function ego:death_pit/book if @s[score_FLbk_min=1978548874,score_FLbk=1978548874]
function ego:rabbit_ball/book if @s[score_FLbk_min=726964523,score_FLbk=726964523]
function ego:mastermind/book if @s[score_FLbk_min=1217546713,score_FLbk=1217546713]
function ego:mastermind_hell/book if @s[score_FLbk_min=525124045,score_FLbk=525124045]
function ego:pictionary/book if @s[score_FLbk_min=1301307747,score_FLbk=1301307747]
function ego:royal_rumble/book if @s[score_FLbk_min=1336970968,score_FLbk=1336970968]
function ego:bh_a_small_village/book if @s[score_FLbk_min=244577678,score_FLbk=244577678]
function ego:bh_apocalypse/book if @s[score_FLbk_min=1203107457,score_FLbk=1203107457]
function ego:bh_castle_de_emmy/book if @s[score_FLbk_min=606156446,score_FLbk=606156446]
function ego:bh_four_corners/book if @s[score_FLbk_min=526354106,score_FLbk=526354106]
function ego:bh_hasdaa/book if @s[score_FLbk_min=478919104,score_FLbk=478919104]
function ego:bh_hospital/book if @s[score_FLbk_min=1159673785,score_FLbk=1159673785]
function ego:bh_jungle/book if @s[score_FLbk_min=184603297,score_FLbk=184603297]
function ego:bh_mastermind/book if @s[score_FLbk_min=408217586,score_FLbk=408217586]
function ego:bh_mushroom_village/book if @s[score_FLbk_min=607841732,score_FLbk=607841732]
function ego:bh_old/book if @s[score_FLbk_min=354536009,score_FLbk=354536009]
function ego:bh_park/book if @s[score_FLbk_min=818788035,score_FLbk=818788035]
function ego:bh_rainbow/book if @s[score_FLbk_min=658982564,score_FLbk=658982564]
function ego:bh_resort/book if @s[score_FLbk_min=1456309508,score_FLbk=1456309508]
function ego:bh_train_station/book if @s[score_FLbk_min=993875352,score_FLbk=993875352]
function ego:bh_virus_1/book if @s[score_FLbk_min=8130627,score_FLbk=8130627]
function ego:bh_virus_2/book if @s[score_FLbk_min=98805618,score_FLbk=98805618]
function ego:bh_zelda/book if @s[score_FLbk_min=558233482,score_FLbk=558233482]
function ego:ts_token/book if @s[score_FLbk_min=2052427056,score_FLbk=2052427056]
scoreboard players set @s FLbk 0
