execute @s[team=!VRMv] ~ ~ ~ function ego:virus_mansion/clear_player
execute @s[team=!VRMv] ~ ~ ~ function ego:virus_mansion/to_hider if @e[type=armor_stand,tag=VRMStand,score_VRMst_min=0,score_VRMst=2]
function ego:virus_mansion/to_virus if @e[type=armor_stand,tag=VRMStand,score_VRMst_min=3,score_VRMst=3]
function ego:virus_mansion/to_hider if @e[type=armor_stand,tag=VRMStand,score_VRMst_min=4,score_VRMst=6]
scoreboard players set @s VRMpl 2
