function ego:virus_mansion/timer
function ego:virus_mansion/player_effects
execute @a[score_gSA_min=1,score_gSA=1,m=2,score_VRMpl_min=1,score_VRMpl=1] ~ ~ ~ function ego:virus_mansion/add_to_round
execute @s[score_VRMti=0] ~ ~ ~ function ego:virus_mansion/end_countdown
