function ego:virus_mansion/timer
execute @a[x=-166,y=13,z=-1216,dx=13,dz=10,m=2,team=VRMh] ~ ~ ~ function ego:virus_mansion/to_virus
function ego:virus_mansion/player_effects
function ego:virus_mansion/calc_glowing
scoreboard players set @e[type=armor_stand,tag=VRMStand,score_VRMchi_min=0,score_VRMchi=0] VRMst 4
execute @a[score_gSA_min=1,score_gSA=1,m=2,score_VRMpl_min=1,score_VRMpl=1] ~ ~ ~ function ego:virus_mansion/add_to_round
