execute @a[score_gSA_min=1,score_gSA=1,m=2,score_VRMpl_min=2,score_VRMpl=2] ~ ~ ~ function ego:virus_mansion/full_reset_player
scoreboard players set @s VRMgl 1
setblock -160 18 -1211 iron_trapdoor facing=west,half=top,open=false
playsound minecraft:block.iron_trapdoor.open voice @a -160 18 -1211
fill -152 11 -1213 -152 11 -1209 redstone_block 0 replace stonebrick 0
scoreboard players reset Countdown VRM
scoreboard players reset Minutes VRM
scoreboard players reset Seconds VRM
scoreboard players set @s VRMst 0
