title @a actionbar {"text":"The doors are now open","color":"green"}
execute @a ~ ~ ~ playsound minecraft:entity.player.levelup voice @s
fill -152 11 -1213 -152 11 -1209 stonebrick 0 replace redstone_block 0
scoreboard players operation @s VRMti = &Countdown VRMcalc
scoreboard players set @s VRMst 2
