scoreboard players set @s VRMgl 3
execute @s[score_VRMchi_min=0,score_VRMchi=0] ~ ~ ~ title @a title {"text":"The virus won!","color":"yellow"}
execute @s[score_VRMchi_min=0,score_VRMchi=0] ~ ~ ~ tellraw @a {"text":"","extra":[{"text":"[","color":"gray"},{"text":"VRM","color":"gold","bold":"true","hoverEvent":{"action":"show_text","value":{"text":"Mansion Virus","color":"gold"}},"clickEvent":{"action":"run_command","value":"/scoreboard players set @p FLtp 1973922275"}},{"text":"]","color":"gray"},{"text":": "},{"text":"The virus won!","color":"yellow"}]}
execute @s[score_VRMchi_min=1] ~ ~ ~ title @a title {"text":"Time!","color":"green"}
execute @s[score_VRMchi_min=1] ~ ~ ~ title @a subtitle {"text":"The hiders won!","color":"green"}
execute @s[score_VRMchi_min=1] ~ ~ ~ tellraw @a {"text":"","extra":[{"text":"[","color":"gray"},{"text":"VRM","color":"gold","bold":"true","hoverEvent":{"action":"show_text","value":{"text":"Mansion Virus","color":"gold"}},"clickEvent":{"action":"run_command","value":"/scoreboard players set @p FLtp 1973922275"}},{"text":"]","color":"gray"},{"text":": "},{"text":"The time is up! The hiders won!","color":"yellow"}]}
execute @s[score_VRMchi_min=1] ~ ~ ~ scoreboard players reset Seconds VRM
execute @s[score_VRMchi_min=1] ~ ~ ~ scoreboard players reset Minutes VRM
setblock -160 18 -1211 iron_trapdoor facing=west,half=top,open=false
playsound minecraft:block.iron_trapdoor.open voice @a -160 18 -1211
fill -152 11 -1213 -152 11 -1209 redstone_block 0 replace stonebrick 0
scoreboard players set @s VRMst 5
