function ego:virus_mansion/clear_player
scoreboard teams join VRMh @s
scoreboard players set @s gTEMP 0
scoreboard players set @s[x=-166,y=13,z=-1216,dx=13,dz=10] gTEMP 1
execute @s[score_gTEMP_min=0,score_gTEMP=0] ~ ~ ~ function ego:virus_mansion/tp_to_spawn if @e[type=armor_stand,tag=VRMStand,score_VRMst_min=0,score_VRMst=1]
