function ego:virus_mansion/clear_player
replaceitem entity @s slot.armor.head golden_helmet 1 0 {Unbreakable:1,ench:[{id:10,lvl:1},{id:71,lvl:1}]}
title @s title {"text":"You are now","color":"yellow"}
title @s subtitle {"text":"the virus!","color":"yellow"}
scoreboard teams join VRMv @s
function ego:virus_mansion/tp_to_wait if @e[type=armor_stand,tag=VRMStand,score_VRMst_min=0,score_VRMst=2]
