scoreboard players reset Classic ST
fill -237 26 17 -237 26 19 stone_slab variant=sandstone
scoreboard players reset Ant_Farm ST
fill -251 26 27 -253 26 27 stone_slab variant=sandstone
scoreboard players set @s STpt 0
