tellraw @a {"text":"","extra":[{"text":"[","color":"gray"},{"text":"ST","color":"yellow","bold":"true","hoverEvent":{"action":"show_text","value":{"text":"Sand Tomb","color":"yellow"}},"clickEvent":{"action":"run_command","value":"/scoreboard players set @p FLtp 1368311757"}},{"text":"]","color":"gray"},{"text":": "},{"selector":"@s"},{"text":" got 2nd place!","color":"green"}]}
scoreboard players operation @s gTEMP = @e[type=armor_stand,tag=STStand] STwc
scoreboard players operation @s gTEMP *= -1 constants
scoreboard players operation @s ST = gTEMP @s
function ego:sand_tomb/set_place_common
