scoreboard players add @e[type=armor_stand,tag=STStand] STwc 1
function ego:sand_tomb/full_reset_player
execute @s ~ ~ ~ summon fireworks_rocket ~ ~ ~ {LifeTime:20,FireworksItem:{id:fireworks,Count:1,tag:{Fireworks:{Explosions:[{Type:0,Flicker:1,Trail:0,Colors:[I;41728,65280],FadeColors:[I;2883328]}]}}}}
