function ego:sand_tomb/close_doors
execute @s[score_STid_min=2,score_STid=2] ~ ~ ~ execute @a[m=2,x=-222,y=4,z=12,dx=20,dy=40,dz=13] ~ ~ ~ function ego:sand_tomb/full_reset_player
execute @s[score_STid_min=1,score_STid=1] ~ ~ ~ execute @a[m=2,x=-272,y=4,z=35,dx=44,dy=45,dz=6] ~ ~ ~ function ego:sand_tomb/full_reset_player
scoreboard players set @s STst 2
execute @a[score_gSA_min=1,score_gSA=1,m=2,score_STpl_min=1,score_STpl=1] ~ ~ ~ function ego:sand_tomb/add_to_round
