execute @a[score_gSA_min=1,score_gSA=1,m=2,score_STpl_min=2,score_STpl=2] ~ ~ ~ function ego:sand_tomb/full_reset_player
fill -222 4 12 -202 44 25 air
fill -272 4 35 -228 49 41 air
kill @e[x=-279,y=4,z=5,dx=83,dy=50,dz=44,type=falling_sand]
scoreboard players set @s STwc 1
scoreboard players set @s STst 0
scoreboard players reset * ST
